module cardss/go_with_Postgre

go 1.15

require (
	github.com/go-pg/pg v8.0.7+incompatible
	github.com/jinzhu/inflection v1.0.0 // indirect
	github.com/onsi/ginkgo v1.14.2 // indirect
	github.com/onsi/gomega v1.10.4 // indirect
	gopkg.in/check.v1 v1.0.0-20201130134442-10cb98267c6c // indirect
	mellium.im/sasl v0.2.1 // indirect
)
